…
The first is a tibble with the parameters for the simulation run.

``` r
mod$params
```

    ## # A tibble: 28 x 9
    ##    ParameterName ParameterType Description   Value UpperEstimate
    ##    <chr>         <chr>         <chr>         <dbl>         <dbl>
    ##  1 init_seeds    InitialCondi… The initia… 1.00e+0        1     
    ##  2 total_popula… InitialCondi… Total numb… 5.00e+6  4999974     
    ##  3 init_suscept… InitialCondi… Initial nu… 5.00e+6  4999973     
    ##  4 start_day     InitialCondi… Start day … 1.00e+0        0     
    ##  5 end_day       InitialCondi… End day of… 3.00e+2        0     
    ##  6 beta          Transmission  Transmissi… 1.12e+0        1.04  
    ##  7 beta_mult_h   Transmission  Multiplica… 2.10e-1        0.75  
    ##  8 beta_mult_i   Transmission  Multiplica… 8.00e-2        0.0101
    ##  9 beta_mult_j   Transmission  Multiplica… 1.20e-1        0.177 
    ## 10 beta_mult_k   Transmission  Multiplica… 1.00e+0        1     
    ## # … with 18 more rows, and 4 more variables: LowerEstimate <dbl>,
    ## #   Varying <lgl>, Source <chr>, ValueS <chr>
…
``` r
mod$pulse
```

    ## [1] "TBD"

The third contains a mapping from the simulation time to the calendar
date

``` r
mod$sim_date
```

    ## # A tibble: 300 x 2
    ##    SimTime Date      
    ##      <int> <date>    
    ##  1       1 2020-02-29
    ##  2       2 2020-03-01
    ##  3       3 2020-03-02
    ##  4       4 2020-03-03
    ##  5       5 2020-03-04
    ##  6       6 2020-03-05
    ##  7       7 2020-03-06
    ##  8       8 2020-03-07
    ##  9       9 2020-03-08
    ## 10      10 2020-03-09
    ## # … with 290 more rows
…
